{
  "Id": null,
  "LinkedAccounts": {},
  "Extensions": {
    "gameclient": null,
    "progression": {
      "XPGain": 0,
      "secondsToNextDrop": 3600.0,
      "secondsElapsed": 200.0,
      "LastScore": 0,
      "LastCompletedChallenge": "00000000-0000-0000-0000-000000000000",
      "Locations": {
        "location_ica_facility": {
          "Xp": 0,
          "PreviouslySeenXp": 0,
          "LastCompletedChallenge": "00000000-0000-0000-0000-000000000000",
          "PreviouslySeenStaging": null,
          "Level": 1
        },
        "location_paris": {
          "Xp": 0,
          "PreviouslySeenXp": 0,
          "LastCompletedChallenge": "00000000-0000-0000-0000-000000000000",
          "PreviouslySeenStaging": null,
          "Level": 1
        },
        "location_parent_coastaltown": {
          "Xp": 0,
          "PreviouslySeenXp": 0,
          "LastCompletedChallenge": "00000000-0000-0000-0000-000000000000",
          "PreviouslySeenStaging": null,
          "Level": 1
        },
        "location_marrakech": {
          "Xp": 0,
          "PreviouslySeenXp": 0,
          "LastCompletedChallenge": "00000000-0000-0000-0000-000000000000",
          "PreviouslySeenStaging": null,
          "Level": 1
        },
        "location_bangkok":  {
          "Xp": 0,
          "PreviouslySeenXp": 0,
          "LastCompletedChallenge": "00000000-0000-0000-0000-000000000000",
          "PreviouslySeenStaging": null,
          "Level": 1
        },
        "location_colorado": {
          "Xp": 0,
          "PreviouslySeenXp": 0,
          "LastCompletedChallenge": "00000000-0000-0000-0000-000000000000",
          "PreviouslySeenStaging": null,
          "Level": 1
        },
        "location_hokkaido": {
          "Xp": 0,
          "PreviouslySeenXp": 0,
          "LastCompletedChallenge": "00000000-0000-0000-0000-000000000000",
          "PreviouslySeenStaging": null,
          "Level": 1
        },
        "location_newzealand": {
          "Xp": 0,
          "PreviouslySeenXp": 0,
          "LastCompletedChallenge": "00000000-0000-0000-0000-000000000000",
          "PreviouslySeenStaging": null,
          "Level": 1
        },
        "location_miami": {
          "Xp": 0,
          "PreviouslySeenXp": 0,
          "LastCompletedChallenge": "00000000-0000-0000-0000-000000000000",
          "PreviouslySeenStaging": null,
          "Level": 1
        },
        "location_colombia": {
          "Xp": 0,
          "PreviouslySeenXp": 0,
          "LastCompletedChallenge": "00000000-0000-0000-0000-000000000000",
          "PreviouslySeenStaging": null,
          "Level": 1
        },
        "location_mumbai": {
          "Xp": 0,
          "PreviouslySeenXp": 0,
          "LastCompletedChallenge": "00000000-0000-0000-0000-000000000000",
          "PreviouslySeenStaging": null,
          "Level": 1
        },
        "location_northamerica": {
          "Xp": 0,
          "PreviouslySeenXp": 0,
          "LastCompletedChallenge": "00000000-0000-0000-0000-000000000000",
          "PreviouslySeenStaging": null,
          "Level": 1
        },
        "location_northsea": {
          "Xp": 0,
          "PreviouslySeenXp": 0,
          "LastCompletedChallenge": "00000000-0000-0000-0000-000000000000",
          "PreviouslySeenStaging": null,
          "Level": 1
        },
        "location_greedy": {
          "Xp": 0,
          "PreviouslySeenXp": 0,
          "LastCompletedChallenge": "00000000-0000-0000-0000-000000000000",
          "PreviouslySeenStaging": null,
          "Level": 1
        },
        "location_opulent": {
          "Xp": 0,
          "PreviouslySeenXp": 0,
          "LastCompletedChallenge": "00000000-0000-0000-0000-000000000000",
          "PreviouslySeenStaging": null,
          "Level": 1
        },
        "location_austria": {
          "Xp": 0,
          "PreviouslySeenXp": 0,
          "LastCompletedChallenge": "00000000-0000-0000-0000-000000000000",
          "PreviouslySeenStaging": null,
          "Level": 1
        },
        "location_salty": {
          "Xp": 0,
          "PreviouslySeenXp": 0,
          "LastCompletedChallenge": "00000000-0000-0000-0000-000000000000",
          "PreviouslySeenStaging": null,
          "Level": 1
        },
        "location_caged": {
          "Xp": 0,
          "PreviouslySeenXp": 0,
          "LastCompletedChallenge": "00000000-0000-0000-0000-000000000000",
          "PreviouslySeenStaging": null,
          "Level": 1
        },
        "location_golden": {
          "Xp": 0,
          "PreviouslySeenXp": 0,
          "LastCompletedChallenge": "00000000-0000-0000-0000-000000000000",
          "PreviouslySeenStaging": null,
          "Level": 1
        },
        "location_ancestral": {
          "Xp": 0,
          "PreviouslySeenXp": 0,
          "LastCompletedChallenge": "00000000-0000-0000-0000-000000000000",
          "PreviouslySeenStaging": null,
          "Level": 1
        },
        "location_edgy": {
          "Xp": 0,
          "PreviouslySeenXp": 0,
          "LastCompletedChallenge": "00000000-0000-0000-0000-000000000000",
          "PreviouslySeenStaging": null,
          "Level": 1
        },
        "location_wet": {
          "Xp": 0,
          "PreviouslySeenXp": 0,
          "LastCompletedChallenge": "00000000-0000-0000-0000-000000000000",
          "PreviouslySeenStaging": null,
          "Level": 1
        },
        "location_elegant": {
          "Xp": 0,
          "PreviouslySeenXp": 0,
          "LastCompletedChallenge": "00000000-0000-0000-0000-000000000000",
          "PreviouslySeenStaging": null,
          "Level": 1
        },
        "location_trapped": {
          "Xp": 0,
          "PreviouslySeenXp": 0,
          "LastCompletedChallenge": "00000000-0000-0000-0000-000000000000",
          "PreviouslySeenStaging": null,
          "Level": 1
        }
      },
      "PlayerProfileXP": {
        "Total": 0,
        "Sublocations": [
          {
            "Location": "LOCATION_ICA_FACILITY",
            "Xp": 0,
            "ActionXp": 0
          },
          {
            "Location": "LOCATION_PARIS",
            "Xp": 0,
            "ActionXp": 0
          },
          {
            "Location": "LOCATION_COASTALTOWN",
            "Xp": 0,
            "ActionXp": 0
          },
          {
            "Location": "LOCATION_COASTALTOWN_MOVIESET",
            "Xp": 0,
            "ActionXp": 0
          },
          {
            "Location": "LOCATION_COASTALTOWN_NIGHT",
            "Xp": 0,
            "ActionXp": 0
          },
          {
            "Location": "LOCATION_COASTALTOWN_EBOLA",
            "Xp": 0,
            "ActionXp": 0
          },
          {
            "Location": "LOCATION_MARRAKECH",
            "Xp": 0,
            "ActionXp": 0
          },
          {
            "Location": "LOCATION_MARRAKECH_NIGHT",
            "Xp": 0,
            "ActionXp": 0
          },
          {
            "Location": "LOCATION_BANGKOK",
            "Xp": 0,
            "ActionXp": 0
          },
          {
            "Location": "LOCATION_BANGKOK_ZIKA",
            "Xp": 0,
            "ActionXp": 0
          },
          {
            "Location": "LOCATION_COLORADO",
            "Xp": 0,
            "ActionXp": 0
          },
          {
            "Location": "LOCATION_COLORADO_RABIES",
            "Xp": 0,
            "ActionXp": 0
          },
          {
            "Location": "LOCATION_HOKKAIDO",
            "Xp": 0,
            "ActionXp": 0
          },
          {
            "Location": "LOCATION_HOKKAIDO_FLU",
            "Xp": 0,
            "ActionXp": 0
          },
          {
            "Location": "LOCATION_NEWZEALAND",
            "Xp": 0,
            "ActionXp": 0
          },
          {
            "Location": "LOCATION_MIAMI",
            "Xp": 0,
            "ActionXp": 0
          },
          {
            "Location": "LOCATION_MIAMI_COTTONMOUTH",
            "Xp": 0,
            "ActionXp": 0
          },
          {
            "Location": "LOCATION_COLOMBIA",
            "Xp": 0,
            "ActionXp": 0
          },
          {
            "Location": "LOCATION_MUMBAI",
            "Xp": 0,
            "ActionXp": 0
          },
          {
            "Location": "LOCATION_NORTHAMERICA",
            "Xp": 0,
            "ActionXp": 0
          },
          {
            "Location": "LOCATION_NORTHSEA",
            "Xp": 0,
            "ActionXp": 0
          },
          {
            "Location": "LOCATION_GREEDY_RACCOON",
            "Xp": 0,
            "ActionXp": 0
          },
          {
            "Location": "LOCATION_OPULENT_STINGRAY",
            "Xp": 0,
            "ActionXp": 0
          },
          {
            "Location": "LOCATION_AUSTRIA",
            "Xp": 0,
            "ActionXp": 0
          },
          {
            "Location": "LOCATION_SALTY_SEAGULL",
            "Xp": 0,
            "ActionXp": 0
          },
          {
            "Location": "LOCATION_CAGED_FALCON",
            "Xp": 0,
            "ActionXp": 0
          },
          {
            "Location": "LOCATION_GOLDEN_GECKO",
            "Xp": 0,
            "ActionXp": 0
          },
          {
            "Location": "LOCATION_ANCESTRAL_BULLDOG",
            "Xp": 0,
            "ActionXp": 0
          },
          {
            "Location": "LOCATION_EDGY_FOX",
            "Xp": 0,
            "ActionXp": 0
          },
          {
            "Location": "LOCATION_WET_RAT",
            "Xp": 0,
            "ActionXp": 0
          },
          {
            "Location": "LOCATION_ELEGANT_LLAMA",
            "Xp": 0,
            "ActionXp": 0
          },
          {
            "Location": "LOCATION_TRAPPED_WOLVERINE",
            "Xp": 0,
            "ActionXp": 0
          }
        ],
        "PreviouslySeenTotal": 0,
        "ProfileLevel": 0,
        "PreviouslySeenStaging": null
      },
      "TimeDropDelta": 0,
      "Unlockables": {
        "firearms_sc_hero_sniper_stone": {
          "Xp": 0,
          "LastCompletedChallenge": "00000000-0000-0000-0000-000000000000"
        },
        "firearms_sc_falcon_hm": {
          "Xp": 0,
          "PreviouslySeenXp": 0,
          "LastCompletedChallenge": "00000000-0000-0000-0000-000000000000",
          "PreviouslySeenStaging": null,
          "Level": 1
        },
        "firearms_sc_falcon_knight": {
          "Xp": 0,
          "PreviouslySeenXp": 0,
          "LastCompletedChallenge": "00000000-0000-0000-0000-000000000000",
          "PreviouslySeenStaging": null,
          "Level": 1
        }
      }
    },
    "gamepersistentdata": {
      "IsFSPUser": false,
      "prologue": {
        "proceed-intro": true
      },
      "menudata": {
        "newunlockables": [],
        "persistentdatacomponent": {
          "destinations": {
            "sub-menu-selection": "destination_category_season_1"
          },
          "planning": {
            "difficulty-selection": "hard"
          }
        },
        "versusmode": {
          "disguiseunlockableid": "TOKEN_OUTFIT_HITMANSUIT"
        },
        "destinations": {
          "sub-menu-selection": "destination_category_season_2"
        }
      },
      "PersistentBool": {
        "__Full": {}
      },
      "HitsFilterType": {
        "MyHistory": "MyHistory",
        "MyContracts": "MyContracts"
      },
      "VideoShown": {},
      "EpilogueSeen": {}
    },
    "opportunityprogression": {},
    "inventory": [],
    "defaultloadout": [],
    "friends": []
  },
  "ETag": null,
  "Gamertag": null,
  "DevId": null,
  "SteamId": null,
  "StadiaId": null,
  "EpicId": null,
  "NintendoId": null,
  "XboxLiveId": null,
  "PSNAccountId": null,
  "PSNOnlineId": null
}