{
	"Id": "fadb923c-e6bb-4283-a537-eb4d1150262e",
	"LinkedAccounts": {
		"dev": "IOI"
	},
	"Extensions": {},
	"ETag": null,
	"DevId": "IOI",
	"SteamId": null,
	"EpicId": null,
	"XboxLiveId": null,
	"PSNAccountId": null,
	"PSNOnlineId": null
}