[
  {
    "Id": "ACCESS_HIT_POLARBEAR_MODULE_002",
    "Guid": "b71b9247-598a-439c-9ac2-00cb4e625aef",
    "Type": "access",
    "Subtype": "hit",
    "ImageId": null,
    "RMTPrice": -1,
    "GamePrice": -1,
    "IsPurchasable": false,
    "IsPublished": true,
    "IsDroppable": false,
    "Capabilities": [],
    "Qualities": {},
    "Properties": {
      "RewardHidden": true,
      "HowToUnlock": "UI_CONTRACT_POLARBEAR_MODULE_002_LOCKED_REASON"
    },
    "Rarity": null
  },
  {
    "Id": "ACCESS_HIT_POLARBEAR_MODULE_002B",
    "Guid": "d695ad91-f2dd-41d5-87cf-546eece59abb",
    "Type": "access",
    "Subtype": "hit",
    "ImageId": null,
    "RMTPrice": -1,
    "GamePrice": -1,
    "IsPurchasable": false,
    "IsPublished": true,
    "IsDroppable": false,
    "Capabilities": [],
    "Qualities": {},
    "Properties": {
      "RewardHidden": true,
      "HowToUnlock": "UI_CONTRACT_POLARBEAR_MODULE_002B_LOCKED_REASON"
    },
    "Rarity": null
  },
  {
    "Id": "ACCESS_HIT_POLARBEAR_GRADUATION",
    "Guid": "b77ed827-a173-44db-91ea-b84f71f45036",
    "Type": "access",
    "Subtype": "hit",
    "ImageId": null,
    "RMTPrice": -1,
    "GamePrice": -1,
    "IsPurchasable": false,
    "IsPublished": true,
    "IsDroppable": false,
    "Capabilities": [],
    "Qualities": {},
    "Properties": {
      "RewardHidden": true,
      "HowToUnlock": "UI_CONTRACT_GRADUATION_LOCKED_REASON"
    },
    "Rarity": null
  },
  {
    "Id": "ACCESS_HIT_PEACOCK",
    "Guid": "e1cec837-511d-47f4-a0ad-e599162e3868",
    "Type": "access",
    "Subtype": "hit",
    "ImageId": null,
    "RMTPrice": -1,
    "GamePrice": -1,
    "IsPurchasable": false,
    "IsPublished": true,
    "IsDroppable": false,
    "Capabilities": [],
    "Qualities": {},
    "Properties": {
      "RewardHidden": true,
      "HowToUnlock": "UI_CONTRACT_PEACOCK_LOCKED_REASON"
    },
    "Rarity": null
  },
  {
    "Id": "ACCESS_HIT_OCTOPUS",
    "Guid": "9b63a8eb-7a15-4e89-9473-db75cdf38442",
    "Type": "access",
    "Subtype": "hit",
    "ImageId": null,
    "RMTPrice": -1,
    "GamePrice": -1,
    "IsPurchasable": false,
    "IsPublished": true,
    "IsDroppable": false,
    "Capabilities": [],
    "Qualities": {},
    "Properties": {
      "RewardHidden": true,
      "HowToUnlock": "UI_CONTRACT_OCTOPUS_LOCKED_REASON"
    },
    "Rarity": null
  },
  {
    "Id": "ACCESS_HIT_SPIDER",
    "Guid": "74dc48c8-8ef6-4729-9e91-6c689ab26c33",
    "Type": "access",
    "Subtype": "hit",
    "ImageId": null,
    "RMTPrice": -1,
    "GamePrice": -1,
    "IsPurchasable": false,
    "IsPublished": true,
    "IsDroppable": false,
    "Capabilities": [],
    "Qualities": {},
    "Properties": {
      "RewardHidden": true,
      "HowToUnlock": "UI_CONTRACT_SPIDER_LOCKED_REASON"
    },
    "Rarity": null
  },
  {
    "Id": "ACCESS_HIT_SNOW_CRANE",
    "Guid": "5a8b8134-aea4-441c-bf7a-db0f3a7d0b7b",
    "Type": "access",
    "Subtype": "hit",
    "ImageId": null,
    "RMTPrice": -1,
    "GamePrice": -1,
    "IsPurchasable": false,
    "IsPublished": true,
    "IsDroppable": false,
    "Capabilities": [],
    "Qualities": {},
    "Properties": {
      "RewardHidden": true,
      "HowToUnlock": "UI_CONTRACT_SNOW_CRANE_LOCKED_REASON"
    },
    "Rarity": null
  },
  {
    "Id": "ACCESS_HIT_TIGER",
    "Guid": "fee38e78-4ac8-472c-b679-653252e8f466",
    "Type": "access",
    "Subtype": "hit",
    "ImageId": null,
    "RMTPrice": -1,
    "GamePrice": -1,
    "IsPurchasable": false,
    "IsPublished": true,
    "IsDroppable": false,
    "Capabilities": [],
    "Qualities": {},
    "Properties": {
      "RewardHidden": true,
      "HowToUnlock": "UI_CONTRACT_TIGER_LOCKED_REASON"
    },
    "Rarity": null
  },
  {
    "Id": "ACCESS_HIT_BULL",
    "Guid": "032c0655-4f6e-432c-a417-2ec4cccae5a0",
    "Type": "access",
    "Subtype": "hit",
    "ImageId": null,
    "RMTPrice": -1,
    "GamePrice": -1,
    "IsPurchasable": false,
    "IsPublished": true,
    "IsDroppable": false,
    "Capabilities": [],
    "Qualities": {},
    "Properties": {
      "RewardHidden": true,
      "HowToUnlock": "UI_CONTRACT_BULL_LOCKED_REASON"
    },
    "Rarity": null
  },
  {
    "Id": "ACCESS_HIT_S1_CONCLUSION",
    "Guid": "35f6445b-a9d1-4ac8-a103-ba9d8b8ee183",
    "Type": "access",
    "Subtype": "hit",
    "ImageId": null,
    "RMTPrice": -1,
    "GamePrice": -1,
    "IsPurchasable": false,
    "IsPublished": true,
    "IsDroppable": false,
    "Capabilities": [],
    "Qualities": {},
    "Properties": {
      "RewardHidden": true,
      "HowToUnlock": "UI_VIDEO_S1_CONCLUSION_LOCKED_REASON"
    },
    "Rarity": null
  },
  {
    "Id": "LOCATION_PARENT_COASTALTOWN",
    "Guid": "d7704708-89b2-4484-902b-e348bde36ddf",
    "Type": "location",
    "Subtype": "location",
    "ImageId": "",
    "RMTPrice": -1,
    "GamePrice": -1,
    "IsPurchasable": false,
    "IsPublished": true,
    "IsDroppable": false,
    "Capabilities": [],
    "Qualities": {},
    "Properties": {
      "Background": "images/locations/LOCATION_COASTALTOWN/map.jpg",
      "Icon": "images/locations/LOCATION_COASTALTOWN/tile.jpg",
      "LockedIcon": "images/locations/LOCATION_COASTALTOWN/tile_unreleased.jpg",
      "DlcImage": "images/livetile/dlc/sapienza_wide_logo.png",
      "DlcName": "GAME_STORE_METADATA_DLC01_TITLE",
      "IsLocked": false,
      "Order": 30,
      "ProgressionKey": "LOCATION_PARENT_COASTALTOWN",
      "RequiredResources": [
        "[assembly:/_PRO/Scenes/Missions/CoastalTown/Mission01.entity].entitytemplate"
      ]
    },
    "Rarity": null
  },
  {
    "Id": "LOCATION_PARENT_MARRAKECH",
    "Guid": "33e73e00-3e7c-423d-918e-7888b7b846b2",
    "Type": "location",
    "Subtype": "location",
    "ImageId": "",
    "RMTPrice": -1,
    "GamePrice": -1,
    "IsPurchasable": false,
    "IsPublished": true,
    "IsDroppable": false,
    "Capabilities": [],
    "Qualities": {},
    "Properties": {
      "Background": "images/locations/LOCATION_MARRAKECH/map.jpg",
      "Icon": "images/locations/LOCATION_MARRAKECH/tile.jpg",
      "LockedIcon": "images/locations/LOCATION_MARRAKECH/tile_unreleased.jpg",
      "DlcImage": "images/livetile/dlc/marrakesh_wide_logo.png",
      "DlcName": "GAME_STORE_METADATA_DLC02_TITLE",
      "IsLocked": false,
      "Order": 30,
      "ProgressionKey": "LOCATION_MARRAKECH",
      "RequiredResources": [
        "[assembly:/_PRO/Scenes/Missions/Marrakesh/_Scene_Mission_Spider.entity].entitytemplate"
      ]
    },
    "Rarity": null
  },
  {
    "Id": "LOCATION_COASTALTOWN",
    "Guid": "92262338-86fc-44b5-ae58-2bf87d7c6ce7",
    "Type": "location",
    "Subtype": "sublocation",
    "ImageId": "",
    "RMTPrice": -1,
    "GamePrice": -1,
    "IsPurchasable": false,
    "IsPublished": true,
    "IsDroppable": false,
    "Capabilities": [],
    "Qualities": {},
    "Properties": {
      "ParentLocation": "LOCATION_PARENT_COASTALTOWN",
      "Background": "images/locations/LOCATION_COASTALTOWN/map.jpg",
      "Icon": "images/contracts/surveillance_portofino/tile.jpg",
      "LockedIcon": "images/locations/LOCATION_COASTALTOWN/tile_unreleased.jpg",
      "DlcImage": "images/livetile/dlc/sapienza_wide_logo.png",
      "DlcName": "GAME_STORE_METADATA_DLC01_TITLE",
      "IsLocked": false,
      "GameChangers": [],
      "Order": 0,
      "ProgressionKey": "LOCATION_PARENT_COASTALTOWN",
      "CreateContractId": "3984dfed-edd5-4697-a1a2-1c3a77f580f5",
      "RequiredResources": [
        "[assembly:/_PRO/Scenes/Missions/CoastalTown/_scene_octopus.entity].entitytemplate"
      ]
    },
    "Rarity": null
  },
  {
    "Id": "LOCATION_COASTALTOWN_NIGHT",
    "Guid": "cb513891-c703-49ee-8db4-1e62264156be",
    "Type": "location",
    "Subtype": "sublocation",
    "ImageId": "",
    "RMTPrice": -1,
    "GamePrice": -1,
    "IsPurchasable": false,
    "IsPublished": true,
    "IsDroppable": false,
    "Capabilities": [],
    "Qualities": {},
    "Properties": {
      "ParentLocation": "LOCATION_PARENT_COASTALTOWN",
      "Background": "images/locations/LOCATION_COASTALTOWN/map.jpg",
      "Icon": "images/contracts/mamba/tile.jpg",
      "LockedIcon": "images/locations/LOCATION_COASTALTOWN/tile_unreleased.jpg",
      "DlcImage": "set-me-up",
      "DlcName": "set-me-up",
      "IsLocked": false,
      "GameChangers": [],
      "Order": 2,
      "ProgressionKey": "LOCATION_PARENT_COASTALTOWN",
      "CreateContractId": "43a1bfcb-dede-453e-95f2-c2862329ebee",
      "HideProgression": true,
      "ExcludeParentRewards": true,
      "RequiredResources": [
        "[assembly:/_PRO/Scenes/Missions/CoastalTown/_Scene_Mission_Mamba.entity].entitytemplate"
      ]
    },
    "Rarity": null
  },
  {
    "Id": "LOCATION_COASTALTOWN_MOVIESET",
    "Guid": "73a73f05-83ef-4e2e-87a8-f05f4e9d2811",
    "Type": "location",
    "Subtype": "sublocation",
    "ImageId": "",
    "RMTPrice": -1,
    "GamePrice": -1,
    "IsPurchasable": false,
    "IsPublished": true,
    "IsDroppable": false,
    "Capabilities": [],
    "Qualities": {},
    "Properties": {
      "ParentLocation": "LOCATION_PARENT_COASTALTOWN",
      "Background": "images/locations/LOCATION_COASTALTOWN/map.jpg",
      "Icon": "images/contracts/copperhead/tile.jpg",
      "LockedIcon": "images/locations/LOCATION_COASTALTOWN/tile_unreleased.jpg",
      "DlcImage": "images/livetile/dlc/summer_bonus_episode_wide_logo.png",
      "DlcName": "GAME_STORE_METADATA_DLC03_TITLE",
      "IsLocked": false,
      "GameChangers": [],
      "Order": 1,
      "ProgressionKey": "LOCATION_PARENT_COASTALTOWN",
      "CreateContractId": "150f6fec-41ef-48b6-9f06-d455052c841c",
      "IsFreeDLC": true,
      "HideProgression": true,
      "ExcludeParentRewards": true,
      "RequiredResources": [
        "[assembly:/_PRO/Scenes/Missions/CoastalTown/_Scene_Mission_Copperhead.entity].entitytemplate"
      ]
    },
    "Rarity": null
  },
  {
    "Id": "LOCATION_ICA_FACILITY",
    "Guid": "f2bee3cc-f79e-449b-a2b2-b1dc309977bc",
    "Type": "location",
    "Subtype": "location",
    "ImageId": null,
    "RMTPrice": -1,
    "GamePrice": -1,
    "IsPurchasable": false,
    "IsPublished": true,
    "IsDroppable": false,
    "Capabilities": [],
    "Qualities": {},
    "Properties": {
      "Quality": "",
      "Icon": "images/locations/LOCATION_siberia/tile.jpg",
      "Background": "images/locations/LOCATION_siberira/map.jpg",
      "Order": 10,
      "ProgressionKey": "LOCATION_ICA_FACILITY",
      "CreateContractId": "535615f2-f8b2-492a-a9c7-150f954dd078",
      "HideProgression": true,
      "RequiredResources": [
        "[assembly:/_pro/scenes/missions/thefacility/_scene_mission_polarbear_002_contracts_creation_tutorial.entity].entitytemplate",
        "[assembly:/_pro/scenes/missions/thefacility/_scene_polarbear_005.entity].entitytemplate"
      ]
    },
    "Rarity": null
  },
  {
    "Id": "LOCATION_PARIS",
    "Guid": "dd0c29f7-ae80-4c4e-ac85-4ec85c075fcc",
    "Type": "location",
    "Subtype": "location",
    "ImageId": null,
    "RMTPrice": -1,
    "GamePrice": -1,
    "IsPurchasable": false,
    "IsPublished": true,
    "IsDroppable": false,
    "Capabilities": [],
    "Qualities": {},
    "Properties": {
      "Quality": "",
      "v0Id": "525820b6ccd48060e0f35ff1",
      "Icon": "images/locations/LOCATION_PARIS/tile.jpg",
      "DlcImage": "images/livetile/dlc/paris_wide_logo.png",
      "DlcName": "GAME_STORE_METADATA_DLC00_TITLE",
      "Background": "images/locations/LOCATION_PARIS/map.jpg",
      "GameChangers": [],
      "Order": 20,
      "ProgressionKey": "LOCATION_PARIS",
      "CreateContractId": "e9f86bbc-ce66-4aa3-8759-2e0580178156",
      "RequiredResources": [
        "[assembly:/_PRO/Scenes/Missions/Paris/_scene_paris.entity].entitytemplate"
      ]
    },
    "Rarity": null
  },
  {
    "Id": "LOCATION_COLORADO",
    "Guid": "7dd2fa8c-6d83-48c8-9092-896b7c6ed888",
    "Type": "location",
    "Subtype": "location",
    "ImageId": null,
    "RMTPrice": -1,
    "GamePrice": -1,
    "IsPurchasable": false,
    "IsPublished": true,
    "IsDroppable": false,
    "Capabilities": [],
    "Qualities": {},
    "Properties": {
      "Icon": "images/locations/LOCATION_COLORADO/tile.jpg",
      "LockedIcon": "images/locations/LOCATION_COLORADO/tile_unreleased.jpg",
      "IsLocked": false,
      "UpcomingContent": false,
      "UpcomingKey": "UI_MENU_LIVETILE_CONTENT_UPCOMING_HEADLINE",
      "Background": "images/locations/LOCATION_COLORADO/map.jpg",
      "Order": 60,
      "ProgressionKey": "LOCATION_COLORADO",
      "CreateContractId": "0ac9d7ef-8923-4ce9-b7b8-f99cc3f47c59",
      "RequiredResources": [
        "[assembly:/_PRO/Scenes/Missions/Colorado_2/_scene_mission_bull.entity].entitytemplate"
      ]
    },
    "Rarity": null
  },
  {
    "Id": "LOCATION_BANGKOK",
    "Guid": "376fc88a-b65c-4285-b7db-4778f75902a6",
    "Type": "location",
    "Subtype": "location",
    "ImageId": null,
    "RMTPrice": -1,
    "GamePrice": -1,
    "IsPurchasable": false,
    "IsPublished": true,
    "IsDroppable": false,
    "Capabilities": [],
    "Qualities": {},
    "Properties": {
      "Icon": "images/locations/LOCATION_BANGKOK/tile.jpg",
      "LockedIcon": "images/locations/LOCATION_BANGKOK/tile_unreleased.jpg",
      "DlcImage": "images/livetile/dlc/bangkok_wide_logo.png",
      "DlcName": "GAME_STORE_METADATA_DLC04_TITLE",
      "IsLocked": false,
      "UpcomingContent": false,
      "UpcomingKey": "UI_MENU_LIVETILE_CONTENT_UPCOMING_HEADLINE",
      "Background": "images/locations/LOCATION_BANGKOK/map.jpg",
      "Order": 50,
      "ProgressionKey": "LOCATION_BANGKOK",
      "CreateContractId": "3919d59e-fbf8-4c40-90e5-b800c9e74694",
      "RequiredResources": [
        "[assembly:/_PRO/Scenes/Missions/Bangkok/_Scene_Mission_Tiger.entity].entitytemplate"
      ]
    },
    "Rarity": null
  },
  {
    "Id": "LOCATION_HOKKAIDO",
    "Guid": "0519881b-7b32-4c3c-a915-68388f4035b8",
    "Type": "location",
    "Subtype": "location",
    "ImageId": null,
    "RMTPrice": -1,
    "GamePrice": -1,
    "IsPurchasable": false,
    "IsPublished": true,
    "IsDroppable": false,
    "Capabilities": [],
    "Qualities": {},
    "Properties": {
      "Icon": "images/locations/LOCATION_HOKKAIDO/tile.jpg",
      "LockedIcon": "images/locations/LOCATION_HOKKAIDO/tile_unreleased.jpg",
      "IsLocked": false,
      "UpcomingContent": false,
      "UpcomingKey": "UI_MENU_LIVETILE_CONTENT_UPCOMING_HEADLINE",
      "Background": "images/locations/LOCATION_HOKKAIDO/map.jpg",
      "Order": 70,
      "ProgressionKey": "LOCATION_HOKKAIDO",
      "CreateContractId": "3b7072e6-febc-46f6-901d-717987f2d22e",
      "RequiredResources": [
        "[assembly:/_PRO/Scenes/Missions/Hokkaido/_Scene_Mission_SnowCrane.entity].entitytemplate"
      ]
    },
    "Rarity": null
  },
  {
    "Id": "LOCATION_MARRAKECH",
    "Guid": "4ed896aa-31fc-457f-a1d6-f70814c5a354",
    "Type": "location",
    "Subtype": "sublocation",
    "ImageId": "",
    "RMTPrice": -1,
    "GamePrice": -1,
    "IsPurchasable": false,
    "IsPublished": true,
    "IsDroppable": false,
    "Capabilities": [],
    "Qualities": {},
    "Properties": {
      "ParentLocation": "LOCATION_PARENT_MARRAKECH",
      "Background": "images/locations/LOCATION_MARRAKECH/map.jpg",
      "Icon": "images/contracts/spider/tile.jpg",
      "LockedIcon": "images/locations/location_marrakech/tile_unreleased.jpg",
      "DlcImage": "images/livetile/dlc/marrakesh_wide_logo.png",
      "DlcName": "GAME_STORE_METADATA_DLC02_TITLE",
      "IsLocked": false,
      "Order": 10,
      "ProgressionKey": "LOCATION_MARRAKECH",
      "CreateContractId": "dff84b03-6c7d-4f80-a04c-98a6ffc73d71",
      "RequiredResources": [
        "[assembly:/_PRO/Scenes/Missions/Marrakesh/_Scene_Mission_Spider.entity].entitytemplate"
      ]
    },
    "Rarity": null
  },
  {
    "Id": "LOCATION_MARRAKECH_NIGHT",
    "Guid": "f78e8098-f5e3-4f66-a997-deeee200901a",
    "Type": "location",
    "Subtype": "sublocation",
    "ImageId": "",
    "RMTPrice": -1,
    "GamePrice": -1,
    "IsPurchasable": false,
    "IsPublished": true,
    "IsDroppable": false,
    "Capabilities": [],
    "Qualities": {},
    "Properties": {
      "ParentLocation": "LOCATION_PARENT_MARRAKECH",
      "Background": "images/locations/LOCATION_MARRAKECH/map.jpg",
      "Icon": "images/contracts/python/tile.jpg",
      "LockedIcon": "images/locations/location_marrakech/tile_unreleased.jpg",
      "DlcImage": "images/livetile/dlc/summer_bonus_episode_wide_logo.png",
      "DlcName": "GAME_STORE_METADATA_DLC03_TITLE",
      "IsLocked": false,
      "Order": 20,
      "ProgressionKey": "LOCATION_MARRAKECH",
      "CreateContractId": "007070d6-6888-4a8b-9f34-2b47d67170f7",
      "IsFreeDLC": true,
      "HideProgression": true,
      "ExcludeParentRewards": true,
      "RequiredResources": [
        "[assembly:/_PRO/Scenes/Missions/Marrakesh/_Scene_Mission_Python.entity].entitytemplate"
      ]
    },
    "Rarity": null
  },
  {
    "Id": "PACKAGE_STARTING_PACKAGE",
    "Guid": "24ac7fee-5930-4fa6-95fb-325d81bee2e7",
    "Type": "package",
    "Subtype": "initial",
    "ImageId": "",
    "RMTPrice": -1,
    "GamePrice": -1,
    "IsPurchasable": false,
    "IsPublished": false,
    "IsDroppable": false,
    "Capabilities": [],
    "Qualities": {},
    "Properties": {
      "Unlocks": [
        "TOKEN_FIBERWIRE",
        "PROP_TOOL_COIN",
        "FIREARMS_HERO_PISTOL_TACTICAL_001_SU_SKIN01",
        "FIREARMS_HERO_PISTOL_LIGHT_000",
        "FIREARMS_HERO_RIFLE_FULLAUTO_000",
        "FIREARMS_HERO_SMG_TACTICAL_000",
        "FIREARMS_HERO_SHOTGUN_SEMIAUTO_000",
        "PROP_DEVICE_ICA_MODULAR_PROXIMITY_EXPLOSIVE",
        "PROP_MELEE_SYRINGE_LETHAL",
        "TOKEN_OUTFIT_HITMANSUIT",
        "PROP_TOOL_LOCK_PICK",
        "TOKEN_OUTFIT_PARIS_HERO_PARISSUIT"
      ]
    },
    "Rarity": null
  },
  {
    "Id": "FIREARMS_HERO_PISTOL_LIGHT_000",
    "Guid": "9c421c5d-60ad-408f-ac8c-26aab6b5d484",
    "Type": "weapon",
    "Subtype": "pistol",
    "ImageId": "",
    "RMTPrice": 99,
    "GamePrice": 99,
    "IsPurchasable": false,
    "IsPublished": true,
    "IsDroppable": false,
    "Capabilities": [],
    "Qualities": {},
    "Properties": {
      "Gameplay": {
        "range": 0.4,
        "damage": 0.3,
        "clipsize": 0.7,
        "rateoffire": 0.6
      },
      "Name": "UI_FIREARMS_HERO_PISTOL_LIGHT_BASE_NAME",
      "Description": "UI_FIREARMS_HERO_PISTOL_LIGHT_BASE_DESC",
      "Quality": 4,
      "Rarity": "common",
      "LoadoutSlot": "concealedweapon",
      "RepositoryId": "304fd49f-0624-4691-8506-149a4b16808e"
    },
    "Rarity": "common"
  },
  {
    "Id": "FIREARMS_HERO_SHOTGUN_SEMIAUTO_000",
    "Guid": "5a4c551b-f53a-4880-a57e-2341a6340d17",
    "Type": "weapon",
    "Subtype": "shotgun",
    "ImageId": "",
    "RMTPrice": 99,
    "GamePrice": 99,
    "IsPurchasable": false,
    "IsPublished": true,
    "IsDroppable": false,
    "Capabilities": [],
    "Qualities": {},
    "Properties": {
      "Gameplay": {
        "range": 0.25,
        "damage": 0.8,
        "clipsize": 0.3,
        "rateoffire": 0.4
      },
      "Name": "UI_FIREARMS_HERO_SHOTGUN_SEMIAUTO_BASE_NAME",
      "Description": "UI_FIREARMS_HERO_SHOTGUN_SEMIAUTO_BASE_DESC",
      "Quality": 4,
      "Rarity": "common",
      "LoadoutSlot": "carriedweapon",
      "RepositoryId": "d5728a0f-fe8d-4e2d-9350-03cf4243c98e"
    },
    "Rarity": "common"
  },
  {
    "Id": "FIREARMS_HERO_PISTOL_TACTICAL_001_SU_SKIN01",
    "Guid": "5a137ea1-cd68-4aa9-863b-1b4f6f5fa63c",
    "Type": "weapon",
    "Subtype": "pistol",
    "ImageId": "",
    "RMTPrice": 99,
    "GamePrice": 99,
    "IsPurchasable": false,
    "IsPublished": true,
    "IsDroppable": false,
    "Capabilities": [],
    "Qualities": {},
    "Properties": {
      "Gameplay": {
        "range": 0.5,
        "damage": 0.6,
        "clipsize": 0.2,
        "rateoffire": 0.6
      },
      "Name": "UI_FIREARMS_HERO_PISTOL_TACTICAL_BASE_NAME",
      "Description": "UI_FIREARMS_HERO_PISTOL_TACTICAL_BASE_DESC",
      "Quality": 4,
      "Rarity": "common",
      "LoadoutSlot": "concealedweapon",
      "RepositoryId": "73875794-5a86-410e-84a4-1b5b2f7e5a54"
    },
    "Rarity": "common"
  },
  {
    "Id": "FIREARMS_HERO_RIFLE_FULLAUTO_000",
    "Guid": "6b24c515-b1b9-42b2-8c58-c759f7fb68d1",
    "Type": "weapon",
    "Subtype": "assaultrifle",
    "ImageId": "",
    "RMTPrice": 99,
    "GamePrice": 99,
    "IsPurchasable": false,
    "IsPublished": true,
    "IsDroppable": false,
    "Capabilities": [],
    "Qualities": {},
    "Properties": {
      "Gameplay": {
        "range": 0.8,
        "damage": 0.95,
        "clipsize": 0.85,
        "rateoffire": 0.75
      },
      "Name": "UI_FIREARMS_HERO_RIFLE_FULLAUTO_BASE_NAME",
      "Description": "UI_FIREARMS_HERO_RIFLE_FULLAUTO_BASE_DESC",
      "Quality": 4,
      "Rarity": "common",
      "LoadoutSlot": "carriedweapon",
      "RepositoryId": "a15af673-8e21-47e3-bdfa-f5dea7b5f9e9"
    },
    "Rarity": "common"
  },
  {
    "Id": "FIREARMS_HERO_SMG_TACTICAL_000",
    "Guid": "447c8383-c2af-4d13-b921-8221680756e4",
    "Type": "weapon",
    "Subtype": "smg",
    "ImageId": "",
    "RMTPrice": 99,
    "GamePrice": 99,
    "IsPurchasable": false,
    "IsPublished": true,
    "IsDroppable": false,
    "Capabilities": [],
    "Qualities": {},
    "Properties": {
      "Gameplay": {
        "range": 0.4,
        "damage": 0.35,
        "clipsize": 0.75,
        "rateoffire": 0.85
      },
      "Name": "UI_FIREARMS_HERO_SMG_TACTICAL_BASE_NAME",
      "Description": "UI_FIREARMS_HERO_SMG_TACTICAL_BASE_DESC",
      "Quality": 4,
      "Rarity": "common",
      "LoadoutSlot": "carriedweapon",
      "RepositoryId": "ba102d90-b8c9-47b9-97eb-b462344b46c3"
    },
    "Rarity": "common"
  },
  {
    "Id": "FIREARMS_HERO_PISTOL_TACTICAL_015_SU_SKIN05",
    "Guid": "469af3e4-57ea-4660-a3ff-d30414b4fee2",
    "Type": "weapon",
    "Subtype": "pistol",
    "ImageId": "",
    "RMTPrice": 99,
    "GamePrice": 99,
    "IsPurchasable": false,
    "IsPublished": true,
    "IsDroppable": false,
    "Capabilities": [],
    "Qualities": {},
    "Properties": {
      "Gameplay": {
        "range": 0.5,
        "damage": 0.6,
        "clipsize": 0.2,
        "rateoffire": 0.6
      },
      "Name": "Firearms_hero_pistol_tactical_015_su_skin05_Name_341ba426-d52d-4ae3-97a9-40b9b3633d76",
      "Description": "Firearms_hero_pistol_tactical_015_su_skin05_Description_341ba426-d52d-4ae3-97a9-40b9b3633d76",
      "Quality": 4,
      "Rarity": "common",
      "LoadoutSlot": "concealedweapon",
      "RepositoryId": "341ba426-d52d-4ae3-97a9-40b9b3633d76"
    },
    "Rarity": "common"
  },
  {
    "Id": "TOKEN_FIBERWIRE",
    "Guid": "982238a8-df5c-4e54-b66d-4c3ba28535c5",
    "Type": "weapon",
    "Subtype": "melee",
    "ImageId": "",
    "RMTPrice": -1,
    "GamePrice": -1,
    "IsPurchasable": false,
    "IsPublished": true,
    "IsDroppable": false,
    "Capabilities": [],
    "Qualities": {},
    "Properties": {
      "Quality": 2,
      "LoadoutSlot": "gear",
      "Rarity": "common",
      "RepositoryId": "1a11a060-358c-4054-98ec-d3491af1d7c6"
    },
    "Rarity": "common"
  },
  {
    "Id": "PROP_DEVICE_SONYPREORDER_WHITE_RUBBERDUCK_REMOTE_EXPLOSIVE",
    "Guid": "c18f92c2-f57c-400c-9e77-14d30bbfb79c",
    "Type": "gear",
    "Subtype": "explosive",
    "ImageId": "",
    "RMTPrice": 149,
    "GamePrice": 149,
    "IsPurchasable": false,
    "IsPublished": true,
    "IsDroppable": false,
    "Capabilities": [],
    "Qualities": {},
    "Properties": {
      "Name": "UI_PROP_EXPLOSIVE_REMOTE_RUBBERDUCK_SONYPREORDER_NAME",
      "Quality": 4,
      "LoadoutSlot": "gear",
      "Rarity": "rare",
      "GameAssets": [
        "PROP_DEVICE_SONYPREORDER_WHITE_RUBBERDUCK_REMOTE_EXPLOSIVE"
      ],
      "RepositoryId": "9aabe1cf-2a11-49d5-8baa-e8ed3ef22c3e",
      "RepositoryAssets": [
        "9aabe1cf-2a11-49d5-8baa-e8ed3ef22c3e"
      ]
    },
    "Rarity": "rare"
  },
  {
    "Id": "PROP_TOOL_COIN",
    "Guid": "7c04aa01-f3fa-48f1-92f4-ba6eca17ae0c",
    "Type": "gear",
    "Subtype": "distraction",
    "ImageId": "",
    "RMTPrice": -1,
    "GamePrice": -1,
    "IsPurchasable": false,
    "IsPublished": true,
    "IsDroppable": false,
    "Capabilities": [],
    "Qualities": {},
    "Properties": {
      "Quality": 1,
      "LoadoutSlot": "gear",
      "Rarity": "common",
      "GameAssets": [
        "PROP_TOOL_COIN",
        "PROP_TOOL_COIN",
        "PROP_TOOL_COIN"
      ],
      "RepositoryId": "dda002e9-02b1-4208-82a5-cf059f3c79cf",
      "RepositoryAssets": [
        "dda002e9-02b1-4208-82a5-cf059f3c79cf",
        "dda002e9-02b1-4208-82a5-cf059f3c79cf",
        "dda002e9-02b1-4208-82a5-cf059f3c79cf"
      ]
    },
    "Rarity": "common"
  },
  {
    "Id": "PROP_DEVICE_ICA_MODULAR_PROXIMITY_EXPLOSIVE",
    "Guid": "9a1e6c0d-3f3d-4af4-b3cf-f54e790f8092",
    "Type": "gear",
    "Subtype": "explosive",
    "ImageId": "",
    "RMTPrice": 149,
    "GamePrice": 149,
    "IsPurchasable": false,
    "IsPublished": true,
    "IsDroppable": false,
    "Capabilities": [],
    "Qualities": {},
    "Properties": {
      "Quality": 2,
      "LoadoutSlot": "gear",
      "Rarity": "common",
      "RepositoryId": "3dd70135-55c0-4199-b55b-d80ea1ac070b"
    },
    "Rarity": "common"
  },
  {
    "Id": "PROP_MELEE_SYRINGE_LETHAL",
    "Guid": "4e68bfef-96af-4d95-86a0-b5dc6ff53c62",
    "Type": "gear",
    "Subtype": "poison",
    "ImageId": "",
    "RMTPrice": 149,
    "GamePrice": 149,
    "IsPurchasable": false,
    "IsPublished": true,
    "IsDroppable": false,
    "Capabilities": [],
    "Qualities": {},
    "Properties": {
      "Quality": 4,
      "LoadoutSlot": "gear",
      "Rarity": "common",
      "RepositoryId": "af9ad679-6a7c-4f8e-9700-ceb5e6887666"
    },
    "Rarity": "common"
  },
  {
    "Id": "PROP_TOOL_LOCK_PICK",
    "Guid": "7850fd23-3a73-44b9-89f6-2ce634e003b9",
    "Type": "gear",
    "Subtype": "tool",
    "ImageId": "",
    "RMTPrice": 149,
    "GamePrice": 149,
    "IsPurchasable": false,
    "IsPublished": true,
    "IsDroppable": false,
    "Capabilities": [],
    "Qualities": {},
    "Properties": {
      "Quality": 5,
      "LoadoutSlot": "gear",
      "Rarity": "common",
      "RepositoryId": "b39d7a0d-e839-417b-880c-cf9b165d4e11"
    },
    "Rarity": "common"
  },
  {
    "Id": "TOKEN_OUTFIT_HITMANSUIT",
    "Guid": "5fa043cf-fe36-457c-9e44-2fa330903e24",
    "Type": "disguise",
    "Subtype": "disguise",
    "ImageId": "",
    "RMTPrice": -1,
    "GamePrice": -1,
    "IsPurchasable": false,
    "IsPublished": true,
    "IsDroppable": false,
    "Capabilities": [],
    "Qualities": {},
    "Properties": {
      "Name": "4fc9396e-2619-4e66-a51e-2bd366230da7_hitman6_hero_hitmansuit_m_name_",
      "Description": "4fc9396e-2619-4e66-a51e-2bd366230da7_hitman6_hero_hitmansuit_m_description_",
      "Quality": 4,
      "Rarity": "common",
      "LoadoutSlot": "disguise",
      "IsConsumable": false,
      "RepositoryId": "4fc9396e-2619-4e66-a51e-2bd366230da7"
    },
    "Rarity": "common"
  },
  {
    "Id": "TOKEN_OUTFIT_PARIS_HERO_PARISSUIT",
    "Guid": "4828bffe-bb00-4304-b1a4-5054b10aab73",
    "Type": "disguise",
    "Subtype": "disguise",
    "ImageId": "",
    "RMTPrice": -1,
    "GamePrice": -1,
    "IsPurchasable": false,
    "IsPublished": false,
    "IsDroppable": false,
    "Capabilities": [],
    "Qualities": {},
    "Properties": {
      "Name": "28d1aef1-45ba-4e8d-9bca-7cd8b4e5b4f8_paris_hero_parissuit_m_hpa1303_name_",
      "Description": "28d1aef1-45ba-4e8d-9bca-7cd8b4e5b4f8_paris_hero_parissuit_m_hpa1303_description_",
      "Quality": 4,
      "Rarity": "common",
      "LoadoutSlot": "disguise",
      "IsConsumable": false,
      "RepositoryId": "28d1aef1-45ba-4e8d-9bca-7cd8b4e5b4f8"
    },
    "Rarity": "common"
  },
  {
    "Id": "TOKEN_OUTFIT_LEGACY_HERO_REQUIEMSUIT",
    "Guid": "66694bbe-a48d-4389-9055-18ce1c0dd3e3",
    "Type": "disguise",
    "Subtype": "disguise",
    "ImageId": "",
    "RMTPrice": -1,
    "GamePrice": -1,
    "IsPurchasable": false,
    "IsPublished": true,
    "IsDroppable": false,
    "Capabilities": [],
    "Qualities": {},
    "Properties": {
      "Name": "feef1171-9faa-4c95-b80e-22ae3c9bbec1_Legacy_Hero_RequiemSuit_M_HPA2105_Name_",
      "Description": "feef1171-9faa-4c95-b80e-22ae3c9bbec1_legacy_hero_requiemsuit_m_hpa2105_description_",
      "Quality": 4,
      "Rarity": "legendary",
      "LoadoutSlot": "disguise",
      "IsConsumable": false,
      "RepositoryId": "feef1171-9faa-4c95-b80e-22ae3c9bbec1"
    },
    "Rarity": "legendary"
  },
  {
    "Id": "TOKEN_OUTFIT_GREENLAND_HERO_TRAININGSUIT",
    "Guid": "3af7dc77-f7f0-4ed0-a31b-b42f6327d4b9",
    "Type": "disguise",
    "Subtype": "disguise",
    "ImageId": "",
    "RMTPrice": -1,
    "GamePrice": -1,
    "IsPurchasable": false,
    "IsPublished": true,
    "IsDroppable": false,
    "Capabilities": [],
    "Qualities": {},
    "Properties": {
      "Name": "054f443b-824f-4913-8b29-64dfcd82b089_greenland_hero_trainingsuit_m_hpa745_name_",
      "Description": "054f443b-824f-4913-8b29-64dfcd82b089_greenland_hero_trainingsuit_m_hpa745_description_",
      "Quality": 4,
      "Rarity": "common",
      "LoadoutSlot": "disguise",
      "IsConsumable": false,
      "RepositoryId": "054f443b-824f-4913-8b29-64dfcd82b089"
    },
    "Rarity": "common"
  },
  {
    "Id": "TOKEN_OUTFIT_SAPIENZA_HERO_SAPIENZASUIT",
    "Guid": "62fd212e-1b8f-4da5-8bc8-990370a92b1d",
    "Type": "disguise",
    "Subtype": "disguise",
    "ImageId": "",
    "RMTPrice": -1,
    "GamePrice": -1,
    "IsPurchasable": false,
    "IsPublished": false,
    "IsDroppable": false,
    "Capabilities": [],
    "Qualities": {},
    "Properties": {
      "RewardHidden": true,
      "Name": "75759271-e236-4b33-8dd5-7e502c958d05_sapienza_hero_sapienzasuit_m_hpa1300_name_",
      "Description": "75759271-e236-4b33-8dd5-7e502c958d05_sapienza_hero_sapienzasuit_m_hpa1300_description_",
      "Quality": 4,
      "Rarity": "common",
      "LoadoutSlot": "disguise",
      "IsConsumable": false,
      "RepositoryId": "75759271-e236-4b33-8dd5-7e502c958d05"
    },
    "Rarity": "common"
  },
  {
    "Id": "TOKEN_OUTFIT_SAPIENZA_HERO_SAPIENZASUIT_NOGLASSES",
    "Guid": "df7b5289-c2eb-4574-a346-683bb587dca0",
    "Type": "disguise",
    "Subtype": "disguise",
    "ImageId": "",
    "RMTPrice": -1,
    "GamePrice": -1,
    "IsPurchasable": false,
    "IsPublished": false,
    "IsDroppable": false,
    "Capabilities": [],
    "Qualities": {},
    "Properties": {
      "RewardHidden": true,
      "Name": "75759271-e236-4b33-8dd5-7e502c958d05_sapienza_hero_sapienzasuit_m_hpa1300_name_",
      "Description": "75759271-e236-4b33-8dd5-7e502c958d05_sapienza_hero_sapienzasuit_m_hpa1300_description_",
      "Quality": 4,
      "Rarity": "common",
      "LoadoutSlot": "disguise",
      "IsConsumable": false,
      "RepositoryId": "cad53cde-4d4a-41cb-9259-87b544f718ad"
    },
    "Rarity": "common"
  },
  {
    "Id": "TOKEN_OUTFIT_MARRAKESH_HERO_MARRAKESHSUIT",
    "Guid": "8c69d2af-1394-45fa-87f5-03d13efa2de1",
    "Type": "disguise",
    "Subtype": "disguise",
    "ImageId": "",
    "RMTPrice": -1,
    "GamePrice": -1,
    "IsPurchasable": false,
    "IsPublished": false,
    "IsDroppable": false,
    "Capabilities": [],
    "Qualities": {},
    "Properties": {
      "Name": "58161492-10c8-4fce-860c-89e9b0a764fb_marrakesh_hero_marrakeshsuit_m_hpa1302_name_",
      "Description": "58161492-10c8-4fce-860c-89e9b0a764fb_marrakesh_hero_marrakeshsuit_m_hpa1302_description_",
      "Quality": 4,
      "Rarity": "common",
      "LoadoutSlot": "disguise",
      "IsConsumable": false,
      "RepositoryId": "58161492-10c8-4fce-860c-89e9b0a764fb"
    },
    "Rarity": "common"
  },
  {
    "Id": "TOKEN_OUTFIT_BANGKOK_HERO_BANGKOKSUIT",
    "Guid": "73dea3b7-88b2-44a3-a5d6-85e3d6004db6",
    "Type": "disguise",
    "Subtype": "disguise",
    "ImageId": "",
    "RMTPrice": -1,
    "GamePrice": -1,
    "IsPurchasable": false,
    "IsPublished": false,
    "IsDroppable": false,
    "Capabilities": [],
    "Qualities": {},
    "Properties": {
      "Name": "c85c6e9c-0aee-43b8-b6e3-d70e76f1890e_bangkok_hero_bangkoksuit_m_hpa2589_name_",
      "Description": "c85c6e9c-0aee-43b8-b6e3-d70e76f1890e_bangkok_hero_bangkoksuit_m_hpa2589_description_",
      "Quality": 4,
      "Rarity": "common",
      "LoadoutSlot": "disguise",
      "IsConsumable": false,
      "RepositoryId": "c85c6e9c-0aee-43b8-b6e3-d70e76f1890e"
    },
    "Rarity": "common"
  },
  {
    "Id": "TOKEN_OUTFIT_COLORADO_HERO_COLORADOSUIT",
    "Guid": "d40b1aba-22bd-4923-bf35-5ce5418f1af6",
    "Type": "disguise",
    "Subtype": "disguise",
    "ImageId": "",
    "RMTPrice": -1,
    "GamePrice": -1,
    "IsPurchasable": false,
    "IsPublished": false,
    "IsDroppable": false,
    "Capabilities": [],
    "Qualities": {},
    "Properties": {
      "Name": "dd9792ec-4a1d-4c29-a928-a556fc0b6692_colorado_hero_coloradosuit_m_hpa2598_name_",
      "Description": "dd9792ec-4a1d-4c29-a928-a556fc0b6692_colorado_hero_coloradosuit_m_hpa2598_description_",
      "Quality": 4,
      "Rarity": "common",
      "LoadoutSlot": "disguise",
      "IsConsumable": false,
      "RepositoryId": "dd9792ec-4a1d-4c29-a928-a556fc0b6692"
    },
    "Rarity": "common"
  },
  {
    "Id": "TOKEN_OUTFIT_HOKKAIDO_HERO_HOKKAIDOSUIT",
    "Guid": "6415fd91-766f-4552-888a-225939388508",
    "Type": "disguise",
    "Subtype": "disguise",
    "ImageId": "",
    "RMTPrice": -1,
    "GamePrice": -1,
    "IsPurchasable": false,
    "IsPublished": false,
    "IsDroppable": false,
    "Capabilities": [],
    "Qualities": {},
    "Properties": {
      "Name": "1c3964e1-75c6-4adb-8cbb-ebd0a830b839_Hokkaido_Hero_PatientSuit_M_HPA2707_Name_",
      "Description": "1c3964e1-75c6-4adb-8cbb-ebd0a830b839_Hokkaido_Hero_PatientSuit_M_HPA2707_Description_",
      "Quality": 4,
      "Rarity": "common",
      "LoadoutSlot": "disguise",
      "IsConsumable": false,
      "RepositoryId": "1c3964e1-75c6-4adb-8cbb-ebd0a830b839"
    },
    "Rarity": "common"
  },
  {
    "Id": "TOKEN_OUTFIT_MARRAKESH_GUARD_ELITE",
    "Guid": "804486da-865f-43d7-ab5c-2b6a6cfefa56",
    "Type": "disguise",
    "Subtype": "disguise",
    "ImageId": "",
    "RMTPrice": 99,
    "GamePrice": 99,
    "IsPurchasable": false,
    "IsPublished": false,
    "Capabilities": [],
    "Qualities": {},
    "Properties": {
      "Quality": 1,
      "Rarity": "common",
      "LoadoutSlot": "disguise",
      "RepositoryId": "e5bb3c6b-2fcd-4e36-a30d-03955cb05088"
    },
    "IsDroppable": false,
    "Rarity": "common"
  },
  {
    "Id": "TOKEN_OUTFIT_MARRAKESH_WORKER_CAFE",
    "Guid": "ee6d6762-22ea-4952-aacb-09279034bfe0",
    "Type": "disguise",
    "Subtype": "disguise",
    "ImageId": "",
    "RMTPrice": 99,
    "GamePrice": 99,
    "IsPurchasable": false,
    "IsPublished": false,
    "Capabilities": [],
    "Qualities": {},
    "Properties": {
      "Quality": 1,
      "Rarity": "common",
      "LoadoutSlot": "disguise",
      "RepositoryId": "6348cc33-665f-4470-80b4-a0ad836df702"
    },
    "IsDroppable": false,
    "Rarity": "common"
  },
  {
    "Id": "TOKEN_OUTFIT_MARRAKESH_WORKER_EMBASSYJANITOR",
    "Guid": "1b5936a8-b423-468d-a7c6-7949e32a129e",
    "Type": "disguise",
    "Subtype": "disguise",
    "ImageId": "",
    "RMTPrice": 99,
    "GamePrice": 99,
    "IsPurchasable": false,
    "IsPublished": false,
    "Capabilities": [],
    "Qualities": {},
    "Properties": {
      "Quality": 1,
      "Rarity": "common",
      "LoadoutSlot": "disguise",
      "RepositoryId": "1b87edd3-fb1e-4adf-9463-efcb380cbd6b"
    },
    "IsDroppable": false,
    "Rarity": "common"
  },
  {
    "Id": "TOKEN_OUTFIT_MARRAKESH_WORKER_HANDYMAN",
    "Guid": "cd24af26-fe74-4f1c-a1bc-d24889e50fd4",
    "Type": "disguise",
    "Subtype": "disguise",
    "ImageId": "",
    "RMTPrice": 99,
    "GamePrice": 99,
    "IsPurchasable": false,
    "IsPublished": false,
    "Capabilities": [],
    "Qualities": {},
    "Properties": {
      "Quality": 1,
      "Rarity": "common",
      "LoadoutSlot": "disguise",
      "RepositoryId": "eb48ed16-195a-4de1-bae6-d7e7ec92046c"
    },
    "IsDroppable": false,
    "Rarity": "common"
  },
  {
    "Id": "TOKEN_OUTFIT_MARRAKESH_WORKER_LOCALFOODVENDOR",
    "Guid": "3c67d6bb-03d1-4e34-b411-b18a80aba8d5",
    "Type": "disguise",
    "Subtype": "disguise",
    "ImageId": "",
    "RMTPrice": 99,
    "GamePrice": 99,
    "IsPurchasable": false,
    "IsPublished": false,
    "Capabilities": [],
    "Qualities": {},
    "Properties": {
      "Quality": 1,
      "Rarity": "common",
      "LoadoutSlot": "disguise",
      "RepositoryId": "98b1c1f6-2634-4c29-b9e6-fa8d7633100a"
    },
    "IsDroppable": false,
    "Rarity": "common"
  },
  {
    "Id": "TOKEN_OUTFIT_PARIS_RESTAURANTCHEF_MALE",
    "Guid": "628cbe55-5939-4b27-bdde-293912490e1f",
    "Type": "disguise",
    "Subtype": "disguise",
    "ImageId": "",
    "RMTPrice": 99,
    "GamePrice": 99,
    "IsPurchasable": false,
    "IsPublished": true,
    "Capabilities": [],
    "Qualities": {},
    "Properties": {
      "Quality": 2,
      "Rarity": "common",
      "LoadoutSlot": "disguise",
      "RepositoryId": "26ae3261-2a1d-49b2-8cab-d626d0887836"
    },
    "Rarity": "common",
    "IsDroppable": false
  },
  {
    "Id": "TOKEN_OUTFIT_PARIS_FASHIONSHOWWAITER",
    "Guid": "2c522905-f06e-41e7-b4a7-34c17673ecc7",
    "Type": "disguise",
    "Subtype": "disguise",
    "ImageId": "",
    "RMTPrice": 99,
    "GamePrice": 99,
    "IsPurchasable": false,
    "IsPublished": true,
    "Capabilities": [],
    "Qualities": {},
    "Properties": {
      "Quality": 2,
      "Rarity": "common",
      "LoadoutSlot": "disguise",
      "RepositoryId": "2018db77-aa8a-4bf9-9afb-56bdaa161156"
    },
    "IsDroppable": false,
    "Rarity": "common"
  },
  {
    "Id": "TOKEN_OUTFIT_PARIS_STYLIST",
    "Guid": "87751273-ffc2-4c31-9b87-36baf0a24e88",
    "Type": "disguise",
    "Subtype": "disguise",
    "ImageId": "",
    "RMTPrice": 99,
    "GamePrice": 99,
    "IsPurchasable": false,
    "IsPublished": true,
    "Capabilities": [],
    "Qualities": {},
    "Properties": {
      "Quality": 2,
      "Rarity": "common",
      "LoadoutSlot": "disguise",
      "RepositoryId": "96e32a7a-129a-4dd6-9b5b-3000a58f2a0f"
    },
    "IsDroppable": false,
    "Rarity": "common"
  },
  {
    "Id": "TOKEN_OUTFIT_PARIS_EVENTCREW",
    "Guid": "4f57633d-5991-4ef5-ab93-e2089a38e352",
    "Type": "disguise",
    "Subtype": "disguise",
    "ImageId": "",
    "RMTPrice": 99,
    "GamePrice": 99,
    "IsPurchasable": false,
    "IsPublished": true,
    "Capabilities": [],
    "Qualities": {},
    "Properties": {
      "Quality": 2,
      "Rarity": "common",
      "LoadoutSlot": "disguise",
      "RepositoryId": "69aac6db-461e-43af-89bc-2c27e50d430f"
    },
    "IsDroppable": false,
    "Rarity": "common"
  },
  {
    "Id": "TOKEN_OUTFIT_ITALY_LABTECHNICIAN_MALE",
    "Guid": "d6965d17-27cd-4449-801a-3528f3f8b078",
    "Type": "disguise",
    "Subtype": "disguise",
    "ImageId": "",
    "RMTPrice": 99,
    "GamePrice": 99,
    "IsPurchasable": false,
    "IsPublished": true,
    "Capabilities": [],
    "Qualities": {},
    "Properties": {
      "Quality": 2,
      "Rarity": "common",
      "LoadoutSlot": "disguise",
      "RepositoryId": "2894c92d-b780-412f-a48f-5c5ddf0dafc8"
    },
    "Rarity": "common",
    "IsDroppable": false
  },
  {
    "Id": "TOKEN_OUTFIT_ITALY_GUARD_MANSION_MALE",
    "Guid": "0fc9c7eb-f4be-4b40-a655-90e629ebdc12",
    "Type": "disguise",
    "Subtype": "disguise",
    "ImageId": "",
    "RMTPrice": 99,
    "GamePrice": 99,
    "IsPurchasable": false,
    "IsPublished": true,
    "Capabilities": [],
    "Qualities": {},
    "Properties": {
      "Quality": 3,
      "Rarity": "common",
      "LoadoutSlot": "disguise",
      "RepositoryId": "fd56a934-f402-4b52-bdca-8bbc737400ff"
    },
    "Rarity": "rare",
    "IsDroppable": false
  },
  {
    "Id": "TOKEN_OUTFIT_ITALY_GARDENER_MALE",
    "Guid": "212174f7-546e-492c-a8c2-377215639bf5",
    "Type": "disguise",
    "Subtype": "disguise",
    "ImageId": "",
    "RMTPrice": 99,
    "GamePrice": 99,
    "IsPurchasable": false,
    "IsPublished": true,
    "Capabilities": [],
    "Qualities": {},
    "Properties": {
      "Quality": 2,
      "Rarity": "common",
      "LoadoutSlot": "disguise",
      "RepositoryId": "d788ff58-8a7a-4a85-acdd-c0e5693525f0"
    },
    "Rarity": "common",
    "IsDroppable": false
  },
  {
    "Id": "TOKEN_OUTFIT_ITALY_KITCHENASSISTANT_MALE",
    "Guid": "0deb56dd-4fb8-418d-9c29-54bf7d8ccf17",
    "Type": "disguise",
    "Subtype": "disguise",
    "ImageId": "",
    "RMTPrice": 99,
    "GamePrice": 99,
    "IsPurchasable": false,
    "IsPublished": true,
    "Capabilities": [],
    "Qualities": {},
    "Properties": {
      "Quality": 1,
      "Rarity": "common",
      "LoadoutSlot": "disguise",
      "RepositoryId": "10601c6b-1f65-44ed-92a1-bf843f023d3f"
    },
    "Rarity": "common",
    "IsDroppable": false
  },
  {
    "Id": "TOKEN_OUTFIT_BANGKOK_GUARD_HOTELSECURITY",
    "Guid": "6eb4b67f-276c-4552-9647-15b9fb18ff06",
    "Type": "disguise",
    "Subtype": "disguise",
    "ImageId": "",
    "RMTPrice": 99,
    "GamePrice": 99,
    "IsPurchasable": false,
    "IsPublished": true,
    "Capabilities": [],
    "Qualities": {},
    "Properties": {
      "Quality": 1,
      "Rarity": "common",
      "LoadoutSlot": "disguise",
      "RepositoryId": "07f3479a-29fc-45e0-bb80-e49a41c0c410"
    },
    "Rarity": "common",
    "IsDroppable": false
  },
  {
    "Id": "TOKEN_OUTFIT_BANGKOK_WORKER_RESTAURANTWAITER",
    "Guid": "3895f10d-1c38-4495-bb8f-c76fd02ca0a5",
    "Type": "disguise",
    "Subtype": "disguise",
    "ImageId": "",
    "RMTPrice": 99,
    "GamePrice": 99,
    "IsPurchasable": false,
    "IsPublished": true,
    "Capabilities": [],
    "Qualities": {},
    "Properties": {
      "Quality": 1,
      "Rarity": "common",
      "LoadoutSlot": "disguise",
      "RepositoryId": "57669117-fbf3-4630-80e3-53e5420a8f30"
    },
    "Rarity": "common",
    "IsDroppable": false
  },
  {
    "Id": "TOKEN_OUTFIT_BANGKOK_WORKER_KITCHENSTAFF",
    "Guid": "200c6d7c-c793-412e-a1e0-4c0157fdc090",
    "Type": "disguise",
    "Subtype": "disguise",
    "ImageId": "",
    "RMTPrice": 99,
    "GamePrice": 99,
    "IsPurchasable": false,
    "IsPublished": true,
    "Capabilities": [],
    "Qualities": {},
    "Properties": {
      "Quality": 1,
      "Rarity": "common",
      "LoadoutSlot": "disguise",
      "RepositoryId": "85971c2e-34ae-423f-9653-bc32c5f3e4f7"
    },
    "Rarity": "common",
    "IsDroppable": false
  },
  {
    "Id": "TOKEN_OUTFIT_BANGKOK_WORKER_HOTELSTAFF",
    "Guid": "14bcbc9b-4fa0-4812-a7d1-b11a55fd60d5",
    "Type": "disguise",
    "Subtype": "disguise",
    "ImageId": "",
    "RMTPrice": 99,
    "GamePrice": 99,
    "IsPurchasable": false,
    "IsPublished": true,
    "Capabilities": [],
    "Qualities": {},
    "Properties": {
      "Quality": 1,
      "Rarity": "common",
      "LoadoutSlot": "disguise",
      "RepositoryId": "c96f9796-0194-47c6-836c-102473cc6c3c"
    },
    "Rarity": "common",
    "IsDroppable": false
  },
  {
    "Id": "TOKEN_OUTFIT_BANGKOK_WORKER_RECORDINGCREW",
    "Guid": "d9e520be-769f-433c-9029-5c4605d1d813",
    "Type": "disguise",
    "Subtype": "disguise",
    "ImageId": "",
    "RMTPrice": 99,
    "GamePrice": 99,
    "IsPurchasable": false,
    "IsPublished": true,
    "Capabilities": [],
    "Qualities": {},
    "Properties": {
      "Quality": 1,
      "Rarity": "common",
      "LoadoutSlot": "disguise",
      "RepositoryId": "ef704a8e-88b7-430a-a217-09bbeea7074f"
    },
    "Rarity": "common",
    "IsDroppable": false
  },
  {
    "Id": "TOKEN_OUTFIT_BANGKOK_UNIQUE_EXTERMINATOR",
    "Guid": "cd1a75fd-46f6-4fe5-bc74-115161a32ccb",
    "Type": "disguise",
    "Subtype": "disguise",
    "ImageId": "",
    "RMTPrice": 99,
    "GamePrice": 99,
    "IsPurchasable": false,
    "IsPublished": true,
    "Capabilities": [],
    "Qualities": {},
    "Properties": {
      "Quality": 1,
      "Rarity": "common",
      "LoadoutSlot": "disguise",
      "RepositoryId": "bf0bcc10-a335-4714-9dd2-69e7e96704b2"
    },
    "Rarity": "common",
    "IsDroppable": false
  },
  {
    "Id": "TOKEN_OUTFIT_BANGKOK_WORKER_GROUNDSKEEPER",
    "Guid": "1ae78a93-f455-49b0-ba01-28d57291256f",
    "Type": "disguise",
    "Subtype": "disguise",
    "ImageId": "",
    "RMTPrice": 99,
    "GamePrice": 99,
    "IsPurchasable": false,
    "IsPublished": true,
    "Capabilities": [],
    "Qualities": {},
    "Properties": {
      "Quality": 1,
      "Rarity": "common",
      "LoadoutSlot": "disguise",
      "RepositoryId": "7f6da010-1a96-4783-83e0-48c55a3e7103"
    },
    "Rarity": "common",
    "IsDroppable": false
  },
  {
    "Id": "PACKAGE_PEACOCK_ACCESS_PACKAGE",
    "Guid": "08b6821d-bb07-4728-aa5b-1fa3ad715739",
    "Type": "package",
    "Subtype": "addition",
    "ImageId": "",
    "RMTPrice": -1,
    "GamePrice": -1,
    "IsPurchasable": false,
    "IsPublished": false,
    "IsDroppable": false,
    "Capabilities": [],
    "Qualities": {},
    "Properties": {
      "Unlocks": [
        "ACCESS_HIT_PEACOCK"
      ]
    },
    "Rarity": null
  }
]